<?xml version="1.0" encoding="utf-8"?>
<!-- Generated by IcoMoon.io -->
<svg version="1.1" xmlns="http://www.w3.org/2000/svg" xmlns:xlink="http://www.w3.org/1999/xlink" width="134" height="32" viewBox="0 0 134 32">
<svg id="icon-brand" width="32" height="32" viewBox="0 0 32 32" x="0" y="0">
<path fill="#7289da" d="M26.974-0.004c1.872 0 3.386 1.516 3.476 3.3v28.7l-3.566-3.030-1.96-1.784-2.14-1.86 0.892 2.94h-18.72c-1.87 0-3.386-1.42-3.386-3.3v-21.662c0-1.78 1.516-3.3 3.39-3.3h22zM18.814 7.572h-0.040l-0.268 0.268c2.764 0.8 4.1 2.050 4.1 2.050-1.78-0.892-3.388-1.336-4.992-1.516-1.16-0.18-2.32-0.088-3.3 0h-0.264c-0.624 0-1.96 0.268-3.744 0.98-0.624 0.268-0.98 0.446-0.98 0.446s1.336-1.336 4.28-2.050l-0.18-0.18s-2.23-0.086-4.636 1.696c0 0-2.406 4.19-2.406 9.36 0 0 1.336 2.316 4.99 2.406 0 0 0.536-0.712 1.070-1.336-2.050-0.624-2.852-1.872-2.852-1.872s0.18 0.088 0.446 0.266h0.080c0.040 0 0.060 0.020 0.080 0.040v0.010c0.020 0.020 0.040 0.040 0.080 0.040 0.44 0.18 0.88 0.356 1.24 0.534 0.62 0.268 1.42 0.536 2.4 0.714 1.24 0.18 2.66 0.268 4.28 0 0.8-0.18 1.6-0.356 2.4-0.714 0.52-0.266 1.16-0.534 1.86-0.98 0 0-0.8 1.248-2.94 1.872 0.44 0.624 1.060 1.336 1.060 1.336 3.66-0.080 5.080-2.4 5.16-2.3 0-5.16-2.42-9.36-2.42-9.36-2.18-1.62-4.22-1.68-4.58-1.68zM19.040 13.456c0.936 0 1.694 0.8 1.694 1.78 0 0.986-0.76 1.784-1.694 1.784s-1.692-0.8-1.692-1.78c0-0.986 0.76-1.784 1.692-1.784zM12.98 13.456c0.934 0 1.692 0.8 1.692 1.78 0 0.986-0.76 1.784-1.692 1.784-0.936 0-1.694-0.8-1.694-1.78 0-0.986 0.76-1.784 1.694-1.784z"></path>
</svg>
<svg id="icon-brand2" width="32" height="32" viewBox="0 0 32 32" x="34" y="0">
<path fill="#3b5998" d="M30.234 0h-28.468c-0.976 0-1.766 0.79-1.766 1.766v28.468c0 0.976 0.79 1.766 1.766 1.766h15.326v-12.392h-4.172v-4.828h4.172v-3.566c0-4.132 2.524-6.38 6.212-6.38 1.766 0 3.284 0.128 3.726 0.188v4.32h-2.56c-2 0-2.39 0.96-2.39 2.36v3.080h4.78l-0.62 4.84h-4.16v12.378h8.154c0.976 0 1.766-0.79 1.766-1.766v-28.468c0-0.976-0.79-1.766-1.766-1.766z"></path>
</svg>
<svg id="icon-brand3" width="32" height="32" viewBox="0 0 32 32" x="68" y="0">
<path fill="#d14836" d="M32 6v20c0 1.134-0.866 2-2 2h-2v-18.15l-12 8.616-12-8.616v18.15h-2c-1.134 0-2-0.866-2-2v-20c0-0.566 0.216-1.066 0.574-1.424 0.36-0.362 0.862-0.576 1.426-0.576h0.666l13.334 9.666 13.334-9.666h0.666c0.566 0 1.066 0.216 1.426 0.576 0.358 0.358 0.574 0.858 0.574 1.424z"></path>
</svg>
<svg id="icon-brand4" width="32" height="32" viewBox="0 0 32 32" x="102" y="0">
<path fill="#2ca5e0" d="M25.586 21.38c1.14-3.12 5.32-14.98 5.988-18.088 0.76-3.52-0.828-3.86-4.44-2.68-3.61 1.18-12.87 4.61-14.43 5.164s-9.146 3.104-10.72 3.864c-3.212 1.724-1.65 4.354 1.94 5.72 10.74 5.154 7.69 2.528 12.484 12.064 0.986 2.436 3.312 6.586 5.54 3.448 1.172-1.784 2.74-7.040 3.64-9.494z"></path>
</svg>
</svg>
